Werk;Periode;Produktion Paletten;Produktion Tonnen;Produktionskosten;Produktionsschichten;Kundentransporte Paletten;Kundentransportkosten;ausgehende IC-Transporte in Paletten;ausgehende IC-Transportkosten;eingehende IC-Transporte in Paletten;eingehende IC-Transportkosten
DE59757;January;12361.936022;2221.295368;293160.722340;124.430736;30455.500000;475913.752837;1885.008508;24127.149302;4626.500000;50980.058824
DE59757;February;18703.049399;3698.505109;644576.246114;324.170287;28396.224625;461192.966701;1112.000000;6841.111882;7111.247712;98542.370266
DE59757;March;18410.013620;3584.763771;570463.667939;268.611984;31327.278329;486658.104159;1229.000000;7377.582471;2532.519436;38696.739419
DE34431;January;56710.940732;7272.220476;989333.331678;393.535040;80167.690000;1322370.721640;7182.877800;67107.907565;6095.000000;95191.000000
DE34431;February;65122.207858;8219.382971;1176844.482673;440.770889;67439.842791;1199420.669497;4680.237999;30839.673880;3372.500000;46939.852941
DE34431;March;66198.709562;8391.308090;1215310.499882;461.317298;71362.900413;1294489.826735;1110.309149;11026.021581;6274.500000;94469.264706
DE09648;January;9117.531867;1955.190543;297756.356534;313.985789;13247.010000;153686.499591;1454.084441;17499.371190;2268.562573;24072.534060
DE09648;February;13493.696991;2874.125665;470305.995091;502.513907;11984.212026;153986.221353;3134.381951;34731.355550;219.937427;6399.318881
DE09648;March;14284.989758;3100.846090;506054.936110;539.614085;13328.513798;168597.417392;3706.788917;41837.268297;86.000000;3763.235294
DE06237;January;27774.018513;3388.824777;335065.494372;172.034728;49472.000000;792003.478538;2429.476968;23987.616559;2072.000000;40399.147059
DE06237;February;33153.166680;4180.737691;415963.951441;214.864781;40425.349905;624406.323261;845.358320;10725.898022;2619.000000;48432.588235
DE06237;March;40253.289632;5058.732748;490505.727666;253.966592;42713.147952;659873.610183;540.141680;4908.074463;3000.000000;54870.941176
DE55120;January;10771.485077;2088.186506;335695.255682;108.207300;17149.000000;270946.028171;1031.090000;15677.661765;3150.604923;46477.802441
DE55120;February;13892.958566;2694.499621;458443.656213;139.853106;15694.646476;234515.213154;1416.826026;20338.579754;2663.646391;61978.161668
DE55120;March;13761.336172;2602.485316;449352.408605;139.384219;19435.000000;311987.091724;994.173974;15230.537893;1932.815655;52740.256006
PL58573;January;20730.904079;3486.208287;290594.839396;543.962187;26379.000000;251160.875994;2100.186087;49427.168726;1032.588508;18275.556773
PL58573;February;26092.125692;4387.219919;365457.477291;717.763836;23889.130000;232335.426444;2946.904652;57259.785250;742.546391;7207.067917
PL58573;March;28224.634153;4742.783060;399217.822594;819.394976;27856.669508;268736.053116;1440.909261;27371.398966;849.953609;8306.020318
FR59166;January;48453.606914;6328.991136;1219418.641277;546.776071;61923.079891;825921.996582;8824.500000;154364.558824;2918.138200;49519.697882
FR59166;February;53456.928561;6705.833891;1316165.310096;589.325820;59914.934400;865123.820112;4082.750000;76683.014706;4108.011543;103296.657940
FR59166;March;52572.894558;6669.760449;1261775.604896;567.561051;60484.393827;856966.834821;7085.000000;126376.470588;1712.812857;34971.792248
IT55100;January;29475.710820;3516.158752;837951.029755;574.743739;36107.784220;422263.761882;1957.631200;42116.035882;261.559600;3336.219294
IT55100;February;32086.557529;3736.097318;854312.736721;592.124099;30262.526893;326667.245348;2462.391200;109438.837647;460.400000;4874.823529
IT55100;March;34393.470290;3952.095834;903379.121131;623.503291;34365.366400;355552.319322;1796.270000;78374.985294;578.872108;6300.078802
IT03043;January;33964.621793;2361.296557;517058.977590;294.342543;34247.468546;338236.965852;255.159600;3125.219294;2383.781200;67952.462353
IT03043;February;26613.822391;2036.960767;461318.249589;267.434680;29135.738384;264330.991771;470.400000;5404.235294;0.000000;0.000000
IT03043;March;22966.232034;1432.742845;343140.003416;199.837324;35170.243600;295114.264343;582.286800;6546.566118;0.000000;0.000000
ES50600;January;10194.742983;1631.537579;147360.898693;87.299111;18826.784144;279030.994280;578.150400;28328.095906;185.430000;8262.455882
ES50600;February;15453.660678;2234.489388;212688.000000;126.000000;15347.040000;202372.683577;1299.589317;48811.045833;400.550000;17374.926471
ES50600;March;16672.872755;2145.615918;199170.035929;117.991727;17035.278873;224615.462991;24.173883;907.942590;386.580000;16835.029412
FR10000;January;0.000000;0.000000;0.000000;0.000000;0.000000;0.000000;0.000000;0.000000;0.000000;0.000000
FR10000;February;0.000000;0.000000;0.000000;0.000000;0.000000;0.000000;0.000000;0.000000;0.000000;0.000000
FR10000;March;0.000000;0.000000;0.000000;0.000000;0.000000;0.000000;0.000000;0.000000;0.000000;0.000000
DE18147;January;0.000000;0.000000;0.000000;0.000000;2212.000000;17197.244879;0.000000;0.000000;2704.000000;21293.850444
DE18147;February;0.000000;0.000000;0.000000;0.000000;1245.000000;9628.970312;0.000000;0.000000;753.000000;6027.769971
DE18147;March;0.000000;0.000000;0.000000;0.000000;1155.000000;9231.467124;0.000000;0.000000;1155.000000;9003.490879
