Werk1;Werk2;Periode;eingehende IC-Transporte in Paletten;eingehende IC-Transportkosten;ausgehende IC-Transporte in Paletten;ausgehende IC-Transportkosten
DE59757;DE34431;August;3722.866951;14234.491282;1203.500000;4601.617647;
DE59757;DE34431;September;1170.133049;4474.038130;870.000000;3326.470588;
DE59757;DE34431;October;1033.000000;3949.705882;756.500000;2892.500000;
DE59757;DE09648;August;2795.664420;41194.937489;114.000000;1575.882353;
DE59757;DE09648;September;567.751201;8365.980936;563.000000;7782.647059;
DE59757;DE09648;October;520.084678;7663.600702;9.000000;124.411765;
DE59757;DE06237;August;3.000000;39.705882;82.000000;1085.294118;
DE59757;DE06237;September;49.000000;648.529412;87.000000;1151.470588;
DE59757;DE06237;October;32.000000;423.529412;84.000000;1111.764706;
DE59757;DE55120;August;130.500000;1228.235294;1.000000;8.823529;
DE59757;DE55120;September;54.000000;508.235294;1.000000;8.823529;
DE59757;DE55120;October;73.500000;691.764706;1.000000;8.823529;
DE59757;PL58573;August;1461.610681;30091.984613;2066.874900;39513.784853;
DE59757;PL58573;September;1377.172887;28353.559441;1203.500000;23008.088235;
DE59757;PL58573;October;1293.216432;26625.044181;1218.000000;23285.294118;
DE59757;FR59166;August;2683.426982;43408.377645;2.000000;29.411765;
DE59757;FR59166;September;806.854437;13052.057063;4.000000;58.823529;
DE59757;FR59166;October;826.218282;13365.295733;0.000000;0.000000;
DE59757;IT55100;August;0.000000;0.000000;33.000000;1358.823529;
DE59757;IT55100;September;0.000000;0.000000;0.000000;0.000000;
DE59757;IT55100;October;0.000000;0.000000;0.000000;0.000000;
DE59757;IT03043;August;0.000000;0.000000;0.000000;0.000000;
DE59757;IT03043;September;0.000000;0.000000;0.000000;0.000000;
DE59757;IT03043;October;0.000000;0.000000;0.000000;0.000000;
DE59757;ES50600;August;0.000000;0.000000;0.000000;0.000000;
DE59757;ES50600;September;0.000000;0.000000;0.000000;0.000000;
DE59757;ES50600;October;0.000000;0.000000;0.000000;0.000000;
DE59757;FR10000;August;0.000000;0.000000;0.000000;0.000000;
DE59757;FR10000;September;0.000000;0.000000;0.000000;0.000000;
DE59757;FR10000;October;0.000000;0.000000;0.000000;0.000000;
DE59757;DE18147;August;0.000000;0.000000;43.000000;347.645515;
DE59757;DE18147;September;0.000000;0.000000;21.000000;169.780368;
DE59757;DE18147;October;0.000000;0.000000;17.000000;137.441250;
DE34431;DE59757;August;1203.500000;4601.617647;3722.866951;14234.491282;
DE34431;DE59757;September;870.000000;3326.470588;1170.133049;4474.038130;
DE34431;DE59757;October;756.500000;2892.500000;1033.000000;3949.705882;
DE34431;DE09648;August;857.000000;11846.764706;67.000000;926.176471;
DE34431;DE09648;September;604.855460;8361.237245;39.500000;546.029412;
DE34431;DE09648;October;363.144540;5019.939225;55.500000;767.205882;
DE34431;DE06237;August;1078.000000;11097.058824;212.000000;2805.882353;
DE34431;DE06237;September;143.000000;1472.058824;118.000000;1561.764706;
DE34431;DE06237;October;0.000000;0.000000;174.000000;2302.941176;
DE34431;DE55120;August;1688.500000;15891.764706;712.000000;6554.588235;
DE34431;DE55120;September;93.500000;880.000000;274.000000;2522.411765;
DE34431;DE55120;October;523.000000;4922.352941;208.000000;1914.823529;
DE34431;PL58573;August;847.500000;15903.088235;571.000000;10916.176471;
DE34431;PL58573;September;567.000000;10639.588235;143.000000;2733.823529;
DE34431;PL58573;October;475.500000;8922.617647;174.000000;3326.470588;
DE34431;FR59166;August;0.000000;0.000000;5360.924207;82621.302485;
DE34431;FR59166;September;0.000000;0.000000;171.325071;2640.421682;
DE34431;FR59166;October;0.000000;0.000000;717.000000;11050.235294;
DE34431;IT55100;August;0.000000;0.000000;0.000000;0.000000;
DE34431;IT55100;September;0.000000;0.000000;0.000000;0.000000;
DE34431;IT55100;October;0.000000;0.000000;0.000000;0.000000;
DE34431;IT03043;August;0.000000;0.000000;0.000000;0.000000;
DE34431;IT03043;September;0.000000;0.000000;0.000000;0.000000;
DE34431;IT03043;October;0.000000;0.000000;0.000000;0.000000;
DE34431;ES50600;August;0.000000;0.000000;0.000000;0.000000;
DE34431;ES50600;September;0.000000;0.000000;0.000000;0.000000;
DE34431;ES50600;October;0.000000;0.000000;0.000000;0.000000;
DE34431;FR10000;August;0.000000;0.000000;0.000000;0.000000;
DE34431;FR10000;September;0.000000;0.000000;0.000000;0.000000;
DE34431;FR10000;October;0.000000;0.000000;0.000000;0.000000;
DE34431;DE18147;August;0.000000;0.000000;51.000000;409.918950;
DE34431;DE18147;September;0.000000;0.000000;46.000000;369.730818;
DE34431;DE18147;October;0.000000;0.000000;27.000000;217.015915;
DE09648;DE59757;August;114.000000;1575.882353;2795.664420;41194.937489;
DE09648;DE59757;September;563.000000;7782.647059;567.751201;8365.980936;
DE09648;DE59757;October;9.000000;124.411765;520.084678;7663.600702;
DE09648;DE34431;August;67.000000;926.176471;857.000000;11846.764706;
DE09648;DE34431;September;39.500000;546.029412;604.855460;8361.237245;
DE09648;DE34431;October;55.500000;767.205882;363.144540;5019.939225;
DE09648;DE06237;August;2041.500000;13690.058824;956.000000;6945.058824;
DE09648;DE06237;September;582.500000;3906.176471;1288.000000;9356.941176;
DE09648;DE06237;October;111.000000;744.352941;586.000000;4257.117647;
DE09648;DE55120;August;502.000000;6791.764706;1352.999400;19897.050000;
DE09648;DE55120;September;512.000000;6927.058824;755.500000;11110.294118;
DE09648;DE55120;October;492.000000;6656.470588;300.500000;4419.117647;
DE09648;PL58573;August;166.000000;2197.058824;1335.631860;12963.485697;
DE09648;PL58573;September;341.589733;4521.040579;303.618140;2946.881950;
DE09648;PL58573;October;12.000000;158.823529;686.000000;6658.235294;
DE09648;FR59166;August;27.800000;776.764706;0.000000;0.000000;
DE09648;FR59166;September;0.000000;0.000000;0.000000;0.000000;
DE09648;FR59166;October;0.000000;0.000000;0.000000;0.000000;
DE09648;IT55100;August;1.000000;44.117647;0.000000;0.000000;
DE09648;IT55100;September;101.000000;4455.882353;0.000000;0.000000;
DE09648;IT55100;October;104.000000;4588.235294;0.000000;0.000000;
DE09648;IT03043;August;0.000000;0.000000;0.000000;0.000000;
DE09648;IT03043;September;0.000000;0.000000;0.000000;0.000000;
DE09648;IT03043;October;0.000000;0.000000;0.000000;0.000000;
DE09648;ES50600;August;0.000000;0.000000;0.000000;0.000000;
DE09648;ES50600;September;0.000000;0.000000;0.000000;0.000000;
DE09648;ES50600;October;0.000000;0.000000;0.000000;0.000000;
DE09648;FR10000;August;0.000000;0.000000;0.000000;0.000000;
DE09648;FR10000;September;0.000000;0.000000;0.000000;0.000000;
DE09648;FR10000;October;0.000000;0.000000;0.000000;0.000000;
DE09648;DE18147;August;0.000000;0.000000;166.000000;1331.505041;
DE09648;DE18147;September;0.000000;0.000000;51.000000;409.076850;
DE09648;DE18147;October;0.000000;0.000000;142.000000;1138.998288;
DE06237;DE59757;August;82.000000;1085.294118;3.000000;39.705882;
DE06237;DE59757;September;87.000000;1151.470588;49.000000;648.529412;
DE06237;DE59757;October;84.000000;1111.764706;32.000000;423.529412;
DE06237;DE34431;August;212.000000;2805.882353;1078.000000;11097.058824;
DE06237;DE34431;September;118.000000;1561.764706;143.000000;1472.058824;
DE06237;DE34431;October;174.000000;2302.941176;0.000000;0.000000;
DE06237;DE09648;August;956.000000;6945.058824;2041.500000;13690.058824;
DE06237;DE09648;September;1288.000000;9356.941176;582.500000;3906.176471;
DE06237;DE09648;October;586.000000;4257.117647;111.000000;744.352941;
DE06237;DE55120;August;316.000000;4647.058824;19.000000;279.411765;
DE06237;DE55120;September;109.500000;1610.294118;13.000000;191.176471;
DE06237;DE55120;October;34.500000;507.352941;13.000000;191.176471;
DE06237;PL58573;August;0.000000;0.000000;0.000000;0.000000;
DE06237;PL58573;September;0.000000;0.000000;53.000000;682.764706;
DE06237;PL58573;October;0.000000;0.000000;0.000000;0.000000;
DE06237;FR59166;August;0.000000;0.000000;0.000000;0.000000;
DE06237;FR59166;September;0.000000;0.000000;0.000000;0.000000;
DE06237;FR59166;October;0.000000;0.000000;0.000000;0.000000;
DE06237;IT55100;August;73.500000;3242.647059;48.000000;1976.470588;
DE06237;IT55100;September;119.500000;5272.058824;0.000000;0.000000;
DE06237;IT55100;October;59.000000;2602.941176;0.000000;0.000000;
DE06237;IT03043;August;0.000000;0.000000;0.000000;0.000000;
DE06237;IT03043;September;0.000000;0.000000;0.000000;0.000000;
DE06237;IT03043;October;0.000000;0.000000;0.000000;0.000000;
DE06237;ES50600;August;0.000000;0.000000;0.000000;0.000000;
DE06237;ES50600;September;0.000000;0.000000;0.000000;0.000000;
DE06237;ES50600;October;0.000000;0.000000;0.000000;0.000000;
DE06237;FR10000;August;0.000000;0.000000;0.000000;0.000000;
DE06237;FR10000;September;0.000000;0.000000;0.000000;0.000000;
DE06237;FR10000;October;0.000000;0.000000;0.000000;0.000000;
DE06237;DE18147;August;0.000000;0.000000;280.000000;1871.002000;
DE06237;DE18147;September;0.000000;0.000000;204.000000;1363.158600;
DE06237;DE18147;October;0.000000;0.000000;340.000000;2271.931000;
DE55120;DE59757;August;1.000000;8.823529;130.500000;1228.235294;
DE55120;DE59757;September;1.000000;8.823529;54.000000;508.235294;
DE55120;DE59757;October;1.000000;8.823529;73.500000;691.764706;
DE55120;DE34431;August;712.000000;6554.588235;1688.500000;15891.764706;
DE55120;DE34431;September;274.000000;2522.411765;93.500000;880.000000;
DE55120;DE34431;October;208.000000;1914.823529;523.000000;4922.352941;
DE55120;DE09648;August;1352.999400;19897.050000;502.000000;6791.764706;
DE55120;DE09648;September;755.500000;11110.294118;512.000000;6927.058824;
DE55120;DE09648;October;300.500000;4419.117647;492.000000;6656.470588;
DE55120;DE06237;August;19.000000;279.411765;316.000000;4647.058824;
DE55120;DE06237;September;13.000000;191.176471;109.500000;1610.294118;
DE55120;DE06237;October;13.000000;191.176471;34.500000;507.352941;
DE55120;PL58573;August;501.581800;9146.491647;774.000000;14114.117647;
DE55120;PL58573;September;69.718413;1271.335764;0.000000;0.000000;
DE55120;PL58573;October;72.000000;1312.941176;412.000000;7512.941176;
DE55120;FR59166;August;0.000000;0.000000;959.081200;12693.721765;
DE55120;FR59166;September;0.000000;0.000000;728.718413;9644.802523;
DE55120;FR59166;October;0.000000;0.000000;327.500000;4334.558824;
DE55120;IT55100;August;72.000000;3028.235294;0.000000;0.000000;
DE55120;IT55100;September;315.000000;13248.529412;0.000000;0.000000;
DE55120;IT55100;October;161.000000;6771.470588;0.000000;0.000000;
DE55120;IT03043;August;0.000000;0.000000;0.000000;0.000000;
DE55120;IT03043;September;0.000000;0.000000;0.000000;0.000000;
DE55120;IT03043;October;0.000000;0.000000;0.000000;0.000000;
DE55120;ES50600;August;0.000000;0.000000;0.000000;0.000000;
DE55120;ES50600;September;0.000000;0.000000;0.000000;0.000000;
DE55120;ES50600;October;0.000000;0.000000;0.000000;0.000000;
DE55120;FR10000;August;0.000000;0.000000;0.000000;0.000000;
DE55120;FR10000;September;0.000000;0.000000;0.000000;0.000000;
DE55120;FR10000;October;0.000000;0.000000;0.000000;0.000000;
DE55120;DE18147;August;0.000000;0.000000;0.000000;0.000000;
DE55120;DE18147;September;0.000000;0.000000;0.000000;0.000000;
DE55120;DE18147;October;0.000000;0.000000;0.000000;0.000000;
PL58573;DE59757;August;2066.874900;39513.784853;1461.610681;30091.984613;
PL58573;DE59757;September;1203.500000;23008.088235;1377.172887;28353.559441;
PL58573;DE59757;October;1218.000000;23285.294118;1293.216432;26625.044181;
PL58573;DE34431;August;571.000000;10916.176471;847.500000;15903.088235;
PL58573;DE34431;September;143.000000;2733.823529;567.000000;10639.588235;
PL58573;DE34431;October;174.000000;3326.470588;475.500000;8922.617647;
PL58573;DE09648;August;1335.631860;12963.485697;166.000000;2197.058824;
PL58573;DE09648;September;303.618140;2946.881950;341.589733;4521.040579;
PL58573;DE09648;October;686.000000;6658.235294;12.000000;158.823529;
PL58573;DE06237;August;0.000000;0.000000;0.000000;0.000000;
PL58573;DE06237;September;53.000000;682.764706;0.000000;0.000000;
PL58573;DE06237;October;0.000000;0.000000;0.000000;0.000000;
PL58573;DE55120;August;774.000000;14114.117647;501.581800;9146.491647;
PL58573;DE55120;September;0.000000;0.000000;69.718413;1271.335764;
PL58573;DE55120;October;412.000000;7512.941176;72.000000;1312.941176;
PL58573;FR59166;August;8.000000;298.823529;32.000000;1129.411765;
PL58573;FR59166;September;0.000000;0.000000;0.000000;0.000000;
PL58573;FR59166;October;0.000000;0.000000;0.000000;0.000000;
PL58573;IT55100;August;31.000000;1504.411765;0.000000;0.000000;
PL58573;IT55100;September;10.000000;485.294118;0.000000;0.000000;
PL58573;IT55100;October;10.000000;485.294118;0.000000;0.000000;
PL58573;IT03043;August;0.000000;0.000000;0.000000;0.000000;
PL58573;IT03043;September;0.000000;0.000000;0.000000;0.000000;
PL58573;IT03043;October;0.000000;0.000000;0.000000;0.000000;
PL58573;ES50600;August;0.000000;0.000000;0.000000;0.000000;
PL58573;ES50600;September;0.000000;0.000000;0.000000;0.000000;
PL58573;ES50600;October;0.000000;0.000000;0.000000;0.000000;
PL58573;FR10000;August;17.000000;582.500000;0.000000;0.000000;
PL58573;FR10000;September;17.000000;582.500000;0.000000;0.000000;
PL58573;FR10000;October;17.000000;582.500000;0.000000;0.000000;
PL58573;DE18147;August;0.000000;0.000000;0.000000;0.000000;
PL58573;DE18147;September;0.000000;0.000000;0.000000;0.000000;
PL58573;DE18147;October;0.000000;0.000000;0.000000;0.000000;
FR59166;DE59757;August;2.000000;29.411765;2683.426982;43408.377645;
FR59166;DE59757;September;4.000000;58.823529;806.854437;13052.057063;
FR59166;DE59757;October;0.000000;0.000000;826.218282;13365.295733;
FR59166;DE34431;August;5360.924207;82621.302485;0.000000;0.000000;
FR59166;DE34431;September;171.325071;2640.421682;0.000000;0.000000;
FR59166;DE34431;October;717.000000;11050.235294;0.000000;0.000000;
FR59166;DE09648;August;0.000000;0.000000;27.800000;776.764706;
FR59166;DE09648;September;0.000000;0.000000;0.000000;0.000000;
FR59166;DE09648;October;0.000000;0.000000;0.000000;0.000000;
FR59166;DE06237;August;0.000000;0.000000;0.000000;0.000000;
FR59166;DE06237;September;0.000000;0.000000;0.000000;0.000000;
FR59166;DE06237;October;0.000000;0.000000;0.000000;0.000000;
FR59166;DE55120;August;959.081200;12693.721765;0.000000;0.000000;
FR59166;DE55120;September;728.718413;9644.802523;0.000000;0.000000;
FR59166;DE55120;October;327.500000;4334.558824;0.000000;0.000000;
FR59166;PL58573;August;32.000000;1129.411765;8.000000;298.823529;
FR59166;PL58573;September;0.000000;0.000000;0.000000;0.000000;
FR59166;PL58573;October;0.000000;0.000000;0.000000;0.000000;
FR59166;IT55100;August;337.699603;16388.363105;0.000000;0.000000;
FR59166;IT55100;September;419.420737;20354.241637;0.000000;0.000000;
FR59166;IT55100;October;306.031060;14851.507317;0.000000;0.000000;
FR59166;IT03043;August;0.000000;0.000000;0.000000;0.000000;
FR59166;IT03043;September;0.000000;0.000000;0.000000;0.000000;
FR59166;IT03043;October;0.000000;0.000000;0.000000;0.000000;
FR59166;ES50600;August;366.500000;13765.308824;6354.500000;252311.029412;
FR59166;ES50600;September;125.235737;4703.706961;4012.500000;159319.852941;
FR59166;ES50600;October;9.264263;347.954803;4756.000000;188841.176471;
FR59166;FR10000;August;0.100000;3.426471;0.000000;0.000000;
FR59166;FR10000;September;0.000000;0.000000;0.000000;0.000000;
FR59166;FR10000;October;0.000000;0.000000;0.000000;0.000000;
FR59166;DE18147;August;0.000000;0.000000;0.000000;0.000000;
FR59166;DE18147;September;0.000000;0.000000;0.000000;0.000000;
FR59166;DE18147;October;0.000000;0.000000;0.000000;0.000000;
IT55100;DE59757;August;33.000000;1358.823529;0.000000;0.000000;
IT55100;DE59757;September;0.000000;0.000000;0.000000;0.000000;
IT55100;DE59757;October;0.000000;0.000000;0.000000;0.000000;
IT55100;DE34431;August;0.000000;0.000000;0.000000;0.000000;
IT55100;DE34431;September;0.000000;0.000000;0.000000;0.000000;
IT55100;DE34431;October;0.000000;0.000000;0.000000;0.000000;
IT55100;DE09648;August;0.000000;0.000000;1.000000;44.117647;
IT55100;DE09648;September;0.000000;0.000000;101.000000;4455.882353;
IT55100;DE09648;October;0.000000;0.000000;104.000000;4588.235294;
IT55100;DE06237;August;48.000000;1976.470588;73.500000;3242.647059;
IT55100;DE06237;September;0.000000;0.000000;119.500000;5272.058824;
IT55100;DE06237;October;0.000000;0.000000;59.000000;2602.941176;
IT55100;DE55120;August;0.000000;0.000000;72.000000;3028.235294;
IT55100;DE55120;September;0.000000;0.000000;315.000000;13248.529412;
IT55100;DE55120;October;0.000000;0.000000;161.000000;6771.470588;
IT55100;PL58573;August;0.000000;0.000000;31.000000;1504.411765;
IT55100;PL58573;September;0.000000;0.000000;10.000000;485.294118;
IT55100;PL58573;October;0.000000;0.000000;10.000000;485.294118;
IT55100;FR59166;August;0.000000;0.000000;337.699603;16388.363105;
IT55100;FR59166;September;0.000000;0.000000;419.420737;20354.241637;
IT55100;FR59166;October;0.000000;0.000000;306.031060;14851.507317;
IT55100;IT03043;August;1547.362000;16383.832941;1450.561800;25598.149412;
IT55100;IT03043;September;256.833400;2719.412471;2003.500000;35355.882353;
IT55100;IT03043;October;625.500000;6622.941176;448.500000;7914.705882;
IT55100;ES50600;August;423.857100;19135.901426;317.500000;13540.441176;
IT55100;ES50600;September;0.000000;0.000000;331.000000;14116.176471;
IT55100;ES50600;October;0.000000;0.000000;152.500000;6503.676471;
IT55100;FR10000;August;0.000000;0.000000;0.000000;0.000000;
IT55100;FR10000;September;0.000000;0.000000;0.000000;0.000000;
IT55100;FR10000;October;0.000000;0.000000;0.000000;0.000000;
IT55100;DE18147;August;0.000000;0.000000;0.000000;0.000000;
IT55100;DE18147;September;0.000000;0.000000;0.000000;0.000000;
IT55100;DE18147;October;0.000000;0.000000;0.000000;0.000000;
IT03043;DE59757;August;0.000000;0.000000;0.000000;0.000000;
IT03043;DE59757;September;0.000000;0.000000;0.000000;0.000000;
IT03043;DE59757;October;0.000000;0.000000;0.000000;0.000000;
IT03043;DE34431;August;0.000000;0.000000;0.000000;0.000000;
IT03043;DE34431;September;0.000000;0.000000;0.000000;0.000000;
IT03043;DE34431;October;0.000000;0.000000;0.000000;0.000000;
IT03043;DE09648;August;0.000000;0.000000;0.000000;0.000000;
IT03043;DE09648;September;0.000000;0.000000;0.000000;0.000000;
IT03043;DE09648;October;0.000000;0.000000;0.000000;0.000000;
IT03043;DE06237;August;0.000000;0.000000;0.000000;0.000000;
IT03043;DE06237;September;0.000000;0.000000;0.000000;0.000000;
IT03043;DE06237;October;0.000000;0.000000;0.000000;0.000000;
IT03043;DE55120;August;0.000000;0.000000;0.000000;0.000000;
IT03043;DE55120;September;0.000000;0.000000;0.000000;0.000000;
IT03043;DE55120;October;0.000000;0.000000;0.000000;0.000000;
IT03043;PL58573;August;0.000000;0.000000;0.000000;0.000000;
IT03043;PL58573;September;0.000000;0.000000;0.000000;0.000000;
IT03043;PL58573;October;0.000000;0.000000;0.000000;0.000000;
IT03043;FR59166;August;0.000000;0.000000;0.000000;0.000000;
IT03043;FR59166;September;0.000000;0.000000;0.000000;0.000000;
IT03043;FR59166;October;0.000000;0.000000;0.000000;0.000000;
IT03043;IT55100;August;1450.561800;25598.149412;1547.362000;16383.832941;
IT03043;IT55100;September;2003.500000;35355.882353;256.833400;2719.412471;
IT03043;IT55100;October;448.500000;7914.705882;625.500000;6622.941176;
IT03043;ES50600;August;0.000000;0.000000;36.500000;1932.352941;
IT03043;ES50600;September;0.000000;0.000000;0.000000;0.000000;
IT03043;ES50600;October;0.000000;0.000000;12.500000;661.764706;
IT03043;FR10000;August;0.000000;0.000000;0.000000;0.000000;
IT03043;FR10000;September;0.000000;0.000000;0.000000;0.000000;
IT03043;FR10000;October;0.000000;0.000000;0.000000;0.000000;
IT03043;DE18147;August;0.000000;0.000000;0.000000;0.000000;
IT03043;DE18147;September;0.000000;0.000000;0.000000;0.000000;
IT03043;DE18147;October;0.000000;0.000000;0.000000;0.000000;
ES50600;DE59757;August;0.000000;0.000000;0.000000;0.000000;
ES50600;DE59757;September;0.000000;0.000000;0.000000;0.000000;
ES50600;DE59757;October;0.000000;0.000000;0.000000;0.000000;
ES50600;DE34431;August;0.000000;0.000000;0.000000;0.000000;
ES50600;DE34431;September;0.000000;0.000000;0.000000;0.000000;
ES50600;DE34431;October;0.000000;0.000000;0.000000;0.000000;
ES50600;DE09648;August;0.000000;0.000000;0.000000;0.000000;
ES50600;DE09648;September;0.000000;0.000000;0.000000;0.000000;
ES50600;DE09648;October;0.000000;0.000000;0.000000;0.000000;
ES50600;DE06237;August;0.000000;0.000000;0.000000;0.000000;
ES50600;DE06237;September;0.000000;0.000000;0.000000;0.000000;
ES50600;DE06237;October;0.000000;0.000000;0.000000;0.000000;
ES50600;DE55120;August;0.000000;0.000000;0.000000;0.000000;
ES50600;DE55120;September;0.000000;0.000000;0.000000;0.000000;
ES50600;DE55120;October;0.000000;0.000000;0.000000;0.000000;
ES50600;PL58573;August;0.000000;0.000000;0.000000;0.000000;
ES50600;PL58573;September;0.000000;0.000000;0.000000;0.000000;
ES50600;PL58573;October;0.000000;0.000000;0.000000;0.000000;
ES50600;FR59166;August;6354.500000;252311.029412;366.500000;13765.308824;
ES50600;FR59166;September;4012.500000;159319.852941;125.235737;4703.706961;
ES50600;FR59166;October;4756.000000;188841.176471;9.264263;347.954803;
ES50600;IT55100;August;317.500000;13540.441176;423.857100;19135.901426;
ES50600;IT55100;September;331.000000;14116.176471;0.000000;0.000000;
ES50600;IT55100;October;152.500000;6503.676471;0.000000;0.000000;
ES50600;IT03043;August;36.500000;1932.352941;0.000000;0.000000;
ES50600;IT03043;September;0.000000;0.000000;0.000000;0.000000;
ES50600;IT03043;October;12.500000;661.764706;0.000000;0.000000;
ES50600;FR10000;August;0.000000;0.000000;17.000000;582.500000;
ES50600;FR10000;September;0.000000;0.000000;17.000000;582.500000;
ES50600;FR10000;October;0.000000;0.000000;17.000000;582.500000;
ES50600;DE18147;August;0.000000;0.000000;0.000000;0.000000;
ES50600;DE18147;September;0.000000;0.000000;0.000000;0.000000;
ES50600;DE18147;October;0.000000;0.000000;0.000000;0.000000;
FR10000;DE59757;August;0.000000;0.000000;0.000000;0.000000;
FR10000;DE59757;September;0.000000;0.000000;0.000000;0.000000;
FR10000;DE59757;October;0.000000;0.000000;0.000000;0.000000;
FR10000;DE34431;August;0.000000;0.000000;0.000000;0.000000;
FR10000;DE34431;September;0.000000;0.000000;0.000000;0.000000;
FR10000;DE34431;October;0.000000;0.000000;0.000000;0.000000;
FR10000;DE09648;August;0.000000;0.000000;0.000000;0.000000;
FR10000;DE09648;September;0.000000;0.000000;0.000000;0.000000;
FR10000;DE09648;October;0.000000;0.000000;0.000000;0.000000;
FR10000;DE06237;August;0.000000;0.000000;0.000000;0.000000;
FR10000;DE06237;September;0.000000;0.000000;0.000000;0.000000;
FR10000;DE06237;October;0.000000;0.000000;0.000000;0.000000;
FR10000;DE55120;August;0.000000;0.000000;0.000000;0.000000;
FR10000;DE55120;September;0.000000;0.000000;0.000000;0.000000;
FR10000;DE55120;October;0.000000;0.000000;0.000000;0.000000;
FR10000;PL58573;August;0.000000;0.000000;17.000000;582.500000;
FR10000;PL58573;September;0.000000;0.000000;17.000000;582.500000;
FR10000;PL58573;October;0.000000;0.000000;17.000000;582.500000;
FR10000;FR59166;August;0.000000;0.000000;0.100000;3.426471;
FR10000;FR59166;September;0.000000;0.000000;0.000000;0.000000;
FR10000;FR59166;October;0.000000;0.000000;0.000000;0.000000;
FR10000;IT55100;August;0.000000;0.000000;0.000000;0.000000;
FR10000;IT55100;September;0.000000;0.000000;0.000000;0.000000;
FR10000;IT55100;October;0.000000;0.000000;0.000000;0.000000;
FR10000;IT03043;August;0.000000;0.000000;0.000000;0.000000;
FR10000;IT03043;September;0.000000;0.000000;0.000000;0.000000;
FR10000;IT03043;October;0.000000;0.000000;0.000000;0.000000;
FR10000;ES50600;August;17.000000;582.500000;0.000000;0.000000;
FR10000;ES50600;September;17.000000;582.500000;0.000000;0.000000;
FR10000;ES50600;October;17.000000;582.500000;0.000000;0.000000;
FR10000;DE18147;August;0.000000;0.000000;0.000000;0.000000;
FR10000;DE18147;September;0.000000;0.000000;0.000000;0.000000;
FR10000;DE18147;October;0.000000;0.000000;0.000000;0.000000;
DE18147;DE59757;August;43.000000;347.645515;0.000000;0.000000;
DE18147;DE59757;September;21.000000;169.780368;0.000000;0.000000;
DE18147;DE59757;October;17.000000;137.441250;0.000000;0.000000;
DE18147;DE34431;August;51.000000;409.918950;0.000000;0.000000;
DE18147;DE34431;September;46.000000;369.730818;0.000000;0.000000;
DE18147;DE34431;October;27.000000;217.015915;0.000000;0.000000;
DE18147;DE09648;August;166.000000;1331.505041;0.000000;0.000000;
DE18147;DE09648;September;51.000000;409.076850;0.000000;0.000000;
DE18147;DE09648;October;142.000000;1138.998288;0.000000;0.000000;
DE18147;DE06237;August;280.000000;1871.002000;0.000000;0.000000;
DE18147;DE06237;September;204.000000;1363.158600;0.000000;0.000000;
DE18147;DE06237;October;340.000000;2271.931000;0.000000;0.000000;
DE18147;DE55120;August;0.000000;0.000000;0.000000;0.000000;
DE18147;DE55120;September;0.000000;0.000000;0.000000;0.000000;
DE18147;DE55120;October;0.000000;0.000000;0.000000;0.000000;
DE18147;PL58573;August;0.000000;0.000000;0.000000;0.000000;
DE18147;PL58573;September;0.000000;0.000000;0.000000;0.000000;
DE18147;PL58573;October;0.000000;0.000000;0.000000;0.000000;
DE18147;FR59166;August;0.000000;0.000000;0.000000;0.000000;
DE18147;FR59166;September;0.000000;0.000000;0.000000;0.000000;
DE18147;FR59166;October;0.000000;0.000000;0.000000;0.000000;
DE18147;IT55100;August;0.000000;0.000000;0.000000;0.000000;
DE18147;IT55100;September;0.000000;0.000000;0.000000;0.000000;
DE18147;IT55100;October;0.000000;0.000000;0.000000;0.000000;
DE18147;IT03043;August;0.000000;0.000000;0.000000;0.000000;
DE18147;IT03043;September;0.000000;0.000000;0.000000;0.000000;
DE18147;IT03043;October;0.000000;0.000000;0.000000;0.000000;
DE18147;ES50600;August;0.000000;0.000000;0.000000;0.000000;
DE18147;ES50600;September;0.000000;0.000000;0.000000;0.000000;
DE18147;ES50600;October;0.000000;0.000000;0.000000;0.000000;
DE18147;FR10000;August;0.000000;0.000000;0.000000;0.000000;
DE18147;FR10000;September;0.000000;0.000000;0.000000;0.000000;
DE18147;FR10000;October;0.000000;0.000000;0.000000;0.000000;
