﻿Name;PLZ;X;Y
Piechowice;PL58573;1819;615
Leuna;DE06237;1317;501
Müschede;DE59757;885;555
Giershagen;DE34431;1053;687
Kriebstein;DE09648;1368;636
Mainz;DE55120;975;825
Lille;FR59166;633;1062
Lucca;IT55100;903;1407
Cassino;IT03043;1035;1542
Ejea;ES50600;387;1494
Troyes;FR10000;633;1221
Rostock;DE18147;1386;165
