Werk;Monat;Produktion in Paletten;Produktion in Tonnen;Produktionskosten Summe;genutzte Schichten;Kundentransporte in Paletten;Kundentransportkosten Summe;ausgehende IC-Transporte in Paletten;ausgehende IC-Transportkosten;eingehende IC-Transporte in Paletten;eingehende IC-Transportkosten
DE54456;January;41400.951786;7046.780025;577338.640426;424.261219;27248.000000;181530.495669;9174.751686;36486.991739;4812.975389;47879.373998
DE54456;February;24775.603257;4196.908037;343215.783363;262.349236;21855.625264;185445.172758;5130.645363;20014.820505;2324.000000;17105.117647
DE54456;March;18347.330497;2926.540764;303279.596196;219.753490;23609.338616;207728.450606;1252.000000;6148.235294;2989.500000;19575.403816
DE18239;January;70873.926027;9769.948825;628971.879352;520.672086;84573.548640;2922851.349971;2783.500000;13739.852941;37311.636270;461387.345086
DE18239;February;52520.947329;7470.427538;491504.362732;406.874472;66077.212973;2013523.997162;1672.000000;6392.941176;27474.296899;363857.998080
DE18239;March;34771.222480;4925.960354;340146.098065;281.577896;67393.469784;1775451.228629;2293.000000;9616.176471;17099.500000;239903.382353
DE86489;January;16247.582906;3785.862073;738335.939433;603.215637;9853.978349;0.000000;7092.485497;93945.108902;0.000000;0.000000
DE86489;February;11926.629051;2749.468687;554403.899218;452.944362;8349.000000;0.000000;3449.248111;45106.643429;0.000000;0.000000
DE86489;March;13770.475618;3181.774695;636654.723062;520.142748;9507.389169;0.000000;4558.661368;60236.068977;0.000000;0.000000
DE17391;January;37239.278831;4971.816180;202409.678704;260.837215;26772.268999;0.000000;3507.009832;37082.516998;0.000000;0.000000
DE17391;February;23014.547378;3079.981525;130368.000000;168.000000;21296.241456;0.000000;1777.151536;18441.148163;0.000000;0.000000
DE17391;March;26783.113811;3572.343205;146596.778394;188.913374;25419.546697;0.000000;2287.338632;23703.834839;0.000000;0.000000
DE99192;January;27116.184200;4950.946385;356832.000000;252.000000;23610.748314;491833.392467;1484.500000;14518.823529;595.000000;28352.058824
DE99192;February;23039.735506;4195.606012;305856.000000;216.000000;22771.854637;551558.497766;400.000000;3764.705882;80.000000;4117.647059
DE99192;March;24653.608564;4801.693206;342672.000000;242.000000;28461.403727;922531.204118;282.000000;2654.117647;60.000000;2523.529412
PL99198;January;33980.311387;4948.292097;512775.242867;407.198049;27841.000000;44506.081782;345.536120;6478.560140;1646.910579;21133.132094
PL99198;February;17612.529923;2544.038768;291069.647435;227.700039;23098.976526;40788.742600;0.000000;0.000000;683.748111;6974.790487
PL99198;March;20809.610831;3058.852540;336612.202289;263.672353;22301.110831;43037.438918;0.000000;0.000000;831.500000;9449.500000
DE24395;January;50776.524209;6710.407326;1097898.667572;548.949334;17183.940508;0.000000;19009.263714;307502.795377;563.500000;21164.397059
DE24395;February;42446.340022;5692.002029;926724.860068;463.362430;29467.253942;0.000000;17993.000000;291063.235294;429.500000;16131.514706
DE24395;March;46844.998355;6044.005490;970559.862924;485.279931;32349.208276;0.000000;10221.500000;165347.794118;595.000000;22347.500000
DE49393;January;0.000000;0.000000;0.000000;0.000000;3171.687144;0.000000;449.975389;19897.995667;0.000000;0.000000
DE49393;February;0.000000;0.000000;0.000000;0.000000;683.925082;0.000000;3.000000;136.764706;0.000000;0.000000
DE49393;March;0.000000;0.000000;0.000000;0.000000;1184.136345;0.000000;81.000000;3480.882353;0.000000;0.000000
DE73099;January;0.000000;0.000000;0.000000;0.000000;2542.152582;0.000000;238.500000;12459.558824;0.000000;0.000000
DE73099;February;0.000000;0.000000;0.000000;0.000000;544.565670;0.000000;137.000000;7135.294118;0.000000;0.000000
DE73099;March;0.000000;0.000000;0.000000;0.000000;652.033528;0.000000;5.000000;264.705882;0.000000;0.000000
DE25495;January;24077.369823;2920.371201;288648.000000;171.000000;18885.675463;0.000000;844.500000;37804.102941;0.000000;0.000000
DE25495;February;16735.499906;2203.200365;212688.000000;126.000000;16775.344450;0.000000;429.500000;16131.514706;0.000000;0.000000
DE25495;March;16769.915552;2209.066873;212688.000000;126.000000;17322.363028;0.000000;595.000000;22347.500000;0.000000;0.000000
